^C:\USERS\DANN\SOURCE\REPOS\PROJECT1\PROJECT1\RELEASE\AMINOACID.OBJ|C:\USERS\DANN\SOURCE\REPOS\PROJECT1\PROJECT1\RELEASE\CELL.OBJ|C:\USERS\DANN\SOURCE\REPOS\PROJECT1\PROJECT1\RELEASE\MITOCHONDRION.OBJ|C:\USERS\DANN\SOURCE\REPOS\PROJECT1\PROJECT1\RELEASE\NUCLEUS.OBJ|C:\USERS\DANN\SOURCE\REPOS\PROJECT1\PROJECT1\RELEASE\PROTEIN.OBJ|C:\USERS\DANN\SOURCE\REPOS\PROJECT1\PROJECT1\RELEASE\RIBOSOME.OBJ|C:\USERS\DANN\SOURCE\REPOS\PROJECT1\PROJECT1\RELEASE\TESTER.OBJ
C:\PROGRAM FILES (X86)\WINDOWS KITS\10\LIB\10.0.18362.0\UM\X86\KERNEL32.LIB
C:\PROGRAM FILES (X86)\WINDOWS KITS\10\LIB\10.0.18362.0\UM\X86\USER32.LIB
C:\PROGRAM FILES (X86)\WINDOWS KITS\10\LIB\10.0.18362.0\UM\X86\GDI32.LIB
C:\PROGRAM FILES (X86)\WINDOWS KITS\10\LIB\10.0.18362.0\UM\X86\WINSPOOL.LIB
C:\PROGRAM FILES (X86)\WINDOWS KITS\10\LIB\10.0.18362.0\UM\X86\COMDLG32.LIB
C:\PROGRAM FILES (X86)\WINDOWS KITS\10\LIB\10.0.18362.0\UM\X86\ADVAPI32.LIB
C:\PROGRAM FILES (X86)\WINDOWS KITS\10\LIB\10.0.18362.0\UM\X86\SHELL32.LIB
C:\PROGRAM FILES (X86)\WINDOWS KITS\10\LIB\10.0.18362.0\UM\X86\OLE32.LIB
C:\PROGRAM FILES (X86)\WINDOWS KITS\10\LIB\10.0.18362.0\UM\X86\OLEAUT32.LIB
C:\PROGRAM FILES (X86)\WINDOWS KITS\10\LIB\10.0.18362.0\UM\X86\UUID.LIB
C:\PROGRAM FILES (X86)\WINDOWS KITS\10\LIB\10.0.18362.0\UM\X86\ODBC32.LIB
C:\PROGRAM FILES (X86)\WINDOWS KITS\10\LIB\10.0.18362.0\UM\X86\ODBCCP32.LIB
C:\USERS\DANN\SOURCE\REPOS\PROJECT1\PROJECT1\RELEASE\AMINOACID.OBJ
C:\USERS\DANN\SOURCE\REPOS\PROJECT1\PROJECT1\RELEASE\CELL.OBJ
C:\USERS\DANN\SOURCE\REPOS\PROJECT1\PROJECT1\RELEASE\MITOCHONDRION.OBJ
C:\USERS\DANN\SOURCE\REPOS\PROJECT1\PROJECT1\RELEASE\NUCLEUS.OBJ
C:\USERS\DANN\SOURCE\REPOS\PROJECT1\PROJECT1\RELEASE\PROTEIN.OBJ
C:\USERS\DANN\SOURCE\REPOS\PROJECT1\PROJECT1\RELEASE\RIBOSOME.OBJ
C:\USERS\DANN\SOURCE\REPOS\PROJECT1\PROJECT1\RELEASE\TESTER.OBJ
C:\WINDOWS\GLOBALIZATION\SORTING\SORTDEFAULT.NLS
C:\PROGRAM FILES (X86)\MICROSOFT VISUAL STUDIO\2019\COMMUNITY\VC\TOOLS\MSVC\14.23.28105\BIN\HOSTX86\X86\C2.DLL
C:\PROGRAM FILES (X86)\MICROSOFT VISUAL STUDIO\2019\COMMUNITY\VC\TOOLS\MSVC\14.23.28105\LIB\X86\MSVCPRT.LIB
C:\PROGRAM FILES (X86)\MICROSOFT VISUAL STUDIO\2019\COMMUNITY\VC\TOOLS\MSVC\14.23.28105\LIB\X86\MSVCRT.LIB
C:\PROGRAM FILES (X86)\MICROSOFT VISUAL STUDIO\2019\COMMUNITY\VC\TOOLS\MSVC\14.23.28105\LIB\X86\OLDNAMES.LIB
C:\PROGRAM FILES (X86)\MICROSOFT VISUAL STUDIO\2019\COMMUNITY\VC\TOOLS\MSVC\14.23.28105\LIB\X86\VCRUNTIME.LIB
C:\PROGRAM FILES (X86)\WINDOWS KITS\10\LIB\10.0.18362.0\UCRT\X86\UCRT.LIB
C:\PROGRAM FILES (X86)\MICROSOFT VISUAL STUDIO\2019\COMMUNITY\VC\TOOLS\MSVC\14.23.28105\BIN\HOSTX86\X86\1033\LINKUI.DLL
C:\PROGRAM FILES (X86)\MICROSOFT VISUAL STUDIO\2019\COMMUNITY\VC\TOOLS\MSVC\14.23.28105\BIN\HOSTX86\X86\CVTRES.EXE
C:\WINDOWS\SYSTEM32\TZRES.DLL
