^C:\USERS\משתמש\DOCUMENTS\GIT-MAGSHIMIM\LEVSAMSONOV-MAGSHIMIM\HW9\TEMPLATES\TEMPLATES-TASK\TEMPLATES-TASK\MAIN.CPP
C:\USERS\משתמש\DOCUMENTS\GIT-MAGSHIMIM\LEVSAMSONOV-MAGSHIMIM\HW9\TEMPLATES\TEMPLATES-TASK\TEMPLATES-TASK\DEBUG\VC142.PDB
C:\USERS\משתמש\DOCUMENTS\GIT-MAGSHIMIM\LEVSAMSONOV-MAGSHIMIM\HW9\TEMPLATES\TEMPLATES-TASK\TEMPLATES-TASK\DEBUG\VC142.IDB
C:\USERS\משתמש\DOCUMENTS\GIT-MAGSHIMIM\LEVSAMSONOV-MAGSHIMIM\HW9\TEMPLATES\TEMPLATES-TASK\TEMPLATES-TASK\DEBUG\MAIN.OBJ
