^C:\USERS\משתמש\DOCUMENTS\GIT-MAGSHIMIM\LEVSAMSONOV-MAGSHIMIM\HW9\BST\BST\BSNODE.CPP
/c /ZI /JMC /nologo /W3 /WX- /diagnostics:column /sdl /Od /Oy- /D _MBCS /Gm- /EHsc /RTC1 /MDd /GS /fp:precise /permissive- /Zc:wchar_t /Zc:forScope /Zc:inline /Fo"DEBUG\\" /Fd"DEBUG\VC142.PDB" /Gd /TP /analyze- /FC C:\USERS\משתמש\DOCUMENTS\GIT-MAGSHIMIM\LEVSAMSONOV-MAGSHIMIM\HW9\BST\BST\BSNODE.CPP
^C:\USERS\משתמש\DOCUMENTS\GIT-MAGSHIMIM\LEVSAMSONOV-MAGSHIMIM\HW9\BST\BST\MAIN.CPP
/c /ZI /JMC /nologo /W3 /WX- /diagnostics:column /sdl /Od /Oy- /D _MBCS /Gm- /EHsc /RTC1 /MDd /GS /fp:precise /permissive- /Zc:wchar_t /Zc:forScope /Zc:inline /Fo"DEBUG\\" /Fd"DEBUG\VC142.PDB" /Gd /TP /analyze- /FC C:\USERS\משתמש\DOCUMENTS\GIT-MAGSHIMIM\LEVSAMSONOV-MAGSHIMIM\HW9\BST\BST\MAIN.CPP
