^C:\USERS\משתמש\DOCUMENTS\GIT-MAGSHIMIM\LEVSAMSONOV-MAGSHIMIM\HW13\HW13\HW13\HW13\HELPER.CPP
/c /ZI /JMC /nologo /W3 /WX- /diagnostics:column /sdl /Od /Oy- /D _MBCS /Gm- /EHsc /RTC1 /MDd /GS /fp:precise /permissive- /Zc:wchar_t /Zc:forScope /Zc:inline /Fo"DEBUG\\" /Fd"DEBUG\VC142.PDB" /Gd /TP /analyze- /FC C:\USERS\משתמש\DOCUMENTS\GIT-MAGSHIMIM\LEVSAMSONOV-MAGSHIMIM\HW13\HW13\HW13\HW13\HELPER.CPP
^C:\USERS\משתמש\DOCUMENTS\GIT-MAGSHIMIM\LEVSAMSONOV-MAGSHIMIM\HW13\HW13\HW13\HW13\WSAINITIALIZER.CPP
/c /ZI /JMC /nologo /W3 /WX- /diagnostics:column /sdl /Od /Oy- /D _MBCS /Gm- /EHsc /RTC1 /MDd /GS /fp:precise /permissive- /Zc:wchar_t /Zc:forScope /Zc:inline /Fo"DEBUG\\" /Fd"DEBUG\VC142.PDB" /Gd /TP /analyze- /FC C:\USERS\משתמש\DOCUMENTS\GIT-MAGSHIMIM\LEVSAMSONOV-MAGSHIMIM\HW13\HW13\HW13\HW13\WSAINITIALIZER.CPP
^C:\USERS\משתמש\DOCUMENTS\GIT-MAGSHIMIM\LEVSAMSONOV-MAGSHIMIM\HW13\HW13\HW13\HW13\SERVER.CPP
/c /ZI /JMC /nologo /W3 /WX- /diagnostics:column /sdl /Od /Oy- /D _MBCS /Gm- /EHsc /RTC1 /MDd /GS /fp:precise /permissive- /Zc:wchar_t /Zc:forScope /Zc:inline /Fo"DEBUG\\" /Fd"DEBUG\VC142.PDB" /Gd /TP /analyze- /FC C:\USERS\משתמש\DOCUMENTS\GIT-MAGSHIMIM\LEVSAMSONOV-MAGSHIMIM\HW13\HW13\HW13\HW13\SERVER.CPP
^C:\USERS\משתמש\DOCUMENTS\GIT-MAGSHIMIM\LEVSAMSONOV-MAGSHIMIM\HW13\HW13\HW13\HW13\SOURCE.CPP
/c /ZI /JMC /nologo /W3 /WX- /diagnostics:column /sdl /Od /Oy- /D _MBCS /Gm- /EHsc /RTC1 /MDd /GS /fp:precise /permissive- /Zc:wchar_t /Zc:forScope /Zc:inline /Fo"DEBUG\\" /Fd"DEBUG\VC142.PDB" /Gd /TP /analyze- /FC C:\USERS\משתמש\DOCUMENTS\GIT-MAGSHIMIM\LEVSAMSONOV-MAGSHIMIM\HW13\HW13\HW13\HW13\SOURCE.CPP
