^C:\USERS\משתמש\DOCUMENTS\GIT-MAGSHIMIM\LEVSAMSONOV-MAGSHIMIM\SADNA\MYTHON\MYTHON\DEBUG\INTERPRETER.OBJ
/OUT:"C:\USERS\משתמש\DOCUMENTS\GIT-MAGSHIMIM\LEVSAMSONOV-MAGSHIMIM\SADNA\MYTHON\DEBUG\MYTHON.EXE" /INCREMENTAL /NOLOGO KERNEL32.LIB USER32.LIB GDI32.LIB WINSPOOL.LIB COMDLG32.LIB ADVAPI32.LIB SHELL32.LIB OLE32.LIB OLEAUT32.LIB UUID.LIB ODBC32.LIB ODBCCP32.LIB /MANIFEST /MANIFESTUAC:"level='asInvoker' uiAccess='false'" /manifest:embed /DEBUG:FASTLINK /PDB:"C:\USERS\משתמש\DOCUMENTS\GIT-MAGSHIMIM\LEVSAMSONOV-MAGSHIMIM\SADNA\MYTHON\DEBUG\MYTHON.PDB" /SUBSYSTEM:CONSOLE /TLBID:1 /DYNAMICBASE /NXCOMPAT /IMPLIB:"C:\USERS\משתמש\DOCUMENTS\GIT-MAGSHIMIM\LEVSAMSONOV-MAGSHIMIM\SADNA\MYTHON\DEBUG\MYTHON.LIB" /MACHINE:X86 DEBUG\INTERPRETER.OBJ
^C:\USERS\משתמש\DOCUMENTS\GIT-MAGSHIMIM\LEVSAMSONOV-MAGSHIMIM\SADNA\MYTHON\MYTHON\DEBUG\BOOLEAN.OBJ|C:\USERS\משתמש\DOCUMENTS\GIT-MAGSHIMIM\LEVSAMSONOV-MAGSHIMIM\SADNA\MYTHON\MYTHON\DEBUG\HELPER.OBJ|C:\USERS\משתמש\DOCUMENTS\GIT-MAGSHIMIM\LEVSAMSONOV-MAGSHIMIM\SADNA\MYTHON\MYTHON\DEBUG\INDENTATIONEXCEPTION.OBJ|C:\USERS\משתמש\DOCUMENTS\GIT-MAGSHIMIM\LEVSAMSONOV-MAGSHIMIM\SADNA\MYTHON\MYTHON\DEBUG\INTEGER.OBJ|C:\USERS\משתמש\DOCUMENTS\GIT-MAGSHIMIM\LEVSAMSONOV-MAGSHIMIM\SADNA\MYTHON\MYTHON\DEBUG\INTERPRETER.OBJ|C:\USERS\משתמש\DOCUMENTS\GIT-MAGSHIMIM\LEVSAMSONOV-MAGSHIMIM\SADNA\MYTHON\MYTHON\DEBUG\PARSER.OBJ|C:\USERS\משתמש\DOCUMENTS\GIT-MAGSHIMIM\LEVSAMSONOV-MAGSHIMIM\SADNA\MYTHON\MYTHON\DEBUG\SEQUENCE.OBJ|C:\USERS\משתמש\DOCUMENTS\GIT-MAGSHIMIM\LEVSAMSONOV-MAGSHIMIM\SADNA\MYTHON\MYTHON\DEBUG\STRING.OBJ|C:\USERS\משתמש\DOCUMENTS\GIT-MAGSHIMIM\LEVSAMSONOV-MAGSHIMIM\SADNA\MYTHON\MYTHON\DEBUG\SYNTAXEXCEPTION.OBJ|C:\USERS\משתמש\DOCUMENTS\GIT-MAGSHIMIM\LEVSAMSONOV-MAGSHIMIM\SADNA\MYTHON\MYTHON\DEBUG\TYPE.OBJ|C:\USERS\משתמש\DOCUMENTS\GIT-MAGSHIMIM\LEVSAMSONOV-MAGSHIMIM\SADNA\MYTHON\MYTHON\DEBUG\VOID.OBJ
/OUT:"C:\USERS\משתמש\DOCUMENTS\GIT-MAGSHIMIM\LEVSAMSONOV-MAGSHIMIM\SADNA\MYTHON\DEBUG\MYTHON.EXE" /INCREMENTAL /NOLOGO KERNEL32.LIB USER32.LIB GDI32.LIB WINSPOOL.LIB COMDLG32.LIB ADVAPI32.LIB SHELL32.LIB OLE32.LIB OLEAUT32.LIB UUID.LIB ODBC32.LIB ODBCCP32.LIB /MANIFEST /MANIFESTUAC:"level='asInvoker' uiAccess='false'" /manifest:embed /DEBUG:FASTLINK /PDB:"C:\USERS\משתמש\DOCUMENTS\GIT-MAGSHIMIM\LEVSAMSONOV-MAGSHIMIM\SADNA\MYTHON\DEBUG\MYTHON.PDB" /SUBSYSTEM:CONSOLE /TLBID:1 /DYNAMICBASE /NXCOMPAT /IMPLIB:"C:\USERS\משתמש\DOCUMENTS\GIT-MAGSHIMIM\LEVSAMSONOV-MAGSHIMIM\SADNA\MYTHON\DEBUG\MYTHON.LIB" /MACHINE:X86 DEBUG\BOOLEAN.OBJDEBUG\HELPER.OBJDEBUG\INDENTATIONEXCEPTION.OBJDEBUG\INTEGER.OBJDEBUG\INTERPRETER.OBJDEBUG\PARSER.OBJDEBUG\SEQUENCE.OBJDEBUG\STRING.OBJDEBUG\SYNTAXEXCEPTION.OBJDEBUG\TYPE.OBJDEBUG\VOID.OBJ
