^C:\USERS\משתמש\DOCUMENTS\GIT-MAGSHIMIM\LEVSAMSONOV-MAGSHIMIM\HW12\PART2\PART-HW12\PART-HW12\MAIN.CPP|C:\USERS\משתמש\DOCUMENTS\GIT-MAGSHIMIM\LEVSAMSONOV-MAGSHIMIM\HW12\PART2\PART-HW12\PART-HW12\MESSAGESENDER.CPP
C:\USERS\משתמש\DOCUMENTS\GIT-MAGSHIMIM\LEVSAMSONOV-MAGSHIMIM\HW12\PART2\PART-HW12\PART-HW12\DEBUG\VC142.PDB
C:\USERS\משתמש\DOCUMENTS\GIT-MAGSHIMIM\LEVSAMSONOV-MAGSHIMIM\HW12\PART2\PART-HW12\PART-HW12\DEBUG\VC142.IDB
C:\USERS\משתמש\DOCUMENTS\GIT-MAGSHIMIM\LEVSAMSONOV-MAGSHIMIM\HW12\PART2\PART-HW12\PART-HW12\DEBUG\MESSAGESENDER.OBJ
^C:\USERS\משתמש\DOCUMENTS\GIT-MAGSHIMIM\LEVSAMSONOV-MAGSHIMIM\HW12\PART2\PART-HW12\PART-HW12\MESSAGESENDER.CPP
C:\USERS\משתמש\DOCUMENTS\GIT-MAGSHIMIM\LEVSAMSONOV-MAGSHIMIM\HW12\PART2\PART-HW12\PART-HW12\DEBUG\MESSAGESENDER.OBJ
^C:\USERS\משתמש\DOCUMENTS\GIT-MAGSHIMIM\LEVSAMSONOV-MAGSHIMIM\HW12\PART2\PART-HW12\PART-HW12\MAIN.CPP
C:\USERS\משתמש\DOCUMENTS\GIT-MAGSHIMIM\LEVSAMSONOV-MAGSHIMIM\HW12\PART2\PART-HW12\PART-HW12\DEBUG\VC142.PDB
C:\USERS\משתמש\DOCUMENTS\GIT-MAGSHIMIM\LEVSAMSONOV-MAGSHIMIM\HW12\PART2\PART-HW12\PART-HW12\DEBUG\VC142.IDB
C:\USERS\משתמש\DOCUMENTS\GIT-MAGSHIMIM\LEVSAMSONOV-MAGSHIMIM\HW12\PART2\PART-HW12\PART-HW12\DEBUG\MAIN.OBJ
