^C:\USERS\משתמש\DOCUMENTS\GIT-MAGSHIMIM\LEVSAMSONOV-MAGSHIMIM\HW5\SOLUTION\HW5-SOLUTION-LEVSAMSONOV\HW5-SOLUTION-LEVSAMSONOV\DEBUG\ARROW.OBJ|C:\USERS\משתמש\DOCUMENTS\GIT-MAGSHIMIM\LEVSAMSONOV-MAGSHIMIM\HW5\SOLUTION\HW5-SOLUTION-LEVSAMSONOV\HW5-SOLUTION-LEVSAMSONOV\DEBUG\CANVAS.OBJ|C:\USERS\משתמש\DOCUMENTS\GIT-MAGSHIMIM\LEVSAMSONOV-MAGSHIMIM\HW5\SOLUTION\HW5-SOLUTION-LEVSAMSONOV\HW5-SOLUTION-LEVSAMSONOV\DEBUG\CIRCLE.OBJ|C:\USERS\משתמש\DOCUMENTS\GIT-MAGSHIMIM\LEVSAMSONOV-MAGSHIMIM\HW5\SOLUTION\HW5-SOLUTION-LEVSAMSONOV\HW5-SOLUTION-LEVSAMSONOV\DEBUG\MAIN.OBJ|C:\USERS\משתמש\DOCUMENTS\GIT-MAGSHIMIM\LEVSAMSONOV-MAGSHIMIM\HW5\SOLUTION\HW5-SOLUTION-LEVSAMSONOV\HW5-SOLUTION-LEVSAMSONOV\DEBUG\MENU.OBJ|C:\USERS\משתמש\DOCUMENTS\GIT-MAGSHIMIM\LEVSAMSONOV-MAGSHIMIM\HW5\SOLUTION\HW5-SOLUTION-LEVSAMSONOV\HW5-SOLUTION-LEVSAMSONOV\DEBUG\POINT.OBJ|C:\USERS\משתמש\DOCUMENTS\GIT-MAGSHIMIM\LEVSAMSONOV-MAGSHIMIM\HW5\SOLUTION\HW5-SOLUTION-LEVSAMSONOV\HW5-SOLUTION-LEVSAMSONOV\DEBUG\POLYGON.OBJ|C:\USERS\משתמש\DOCUMENTS\GIT-MAGSHIMIM\LEVSAMSONOV-MAGSHIMIM\HW5\SOLUTION\HW5-SOLUTION-LEVSAMSONOV\HW5-SOLUTION-LEVSAMSONOV\DEBUG\RECTANGLE.OBJ|C:\USERS\משתמש\DOCUMENTS\GIT-MAGSHIMIM\LEVSAMSONOV-MAGSHIMIM\HW5\SOLUTION\HW5-SOLUTION-LEVSAMSONOV\HW5-SOLUTION-LEVSAMSONOV\DEBUG\SHAPE.OBJ|C:\USERS\משתמש\DOCUMENTS\GIT-MAGSHIMIM\LEVSAMSONOV-MAGSHIMIM\HW5\SOLUTION\HW5-SOLUTION-LEVSAMSONOV\HW5-SOLUTION-LEVSAMSONOV\DEBUG\TRIANGLE.OBJ
C:\USERS\משתמש\DOCUMENTS\GIT-MAGSHIMIM\LEVSAMSONOV-MAGSHIMIM\HW5\SOLUTION\HW5-SOLUTION-LEVSAMSONOV\DEBUG\HW5-SOLUTION-LEVSAMSONOV.ILK
C:\USERS\משתמש\DOCUMENTS\GIT-MAGSHIMIM\LEVSAMSONOV-MAGSHIMIM\HW5\SOLUTION\HW5-SOLUTION-LEVSAMSONOV\DEBUG\HW5-SOLUTION-LEVSAMSONOV.EXE
C:\USERS\משתמש\DOCUMENTS\GIT-MAGSHIMIM\LEVSAMSONOV-MAGSHIMIM\HW5\SOLUTION\HW5-SOLUTION-LEVSAMSONOV\DEBUG\HW5-SOLUTION-LEVSAMSONOV.PDB
