^C:\USERS\משתמש\DESKTOP\סדנת_דיבאג\DEBUGWORKSHOP\LOOPAGAIN\DEBUG\LOOPAGAIN.OBJ
C:\USERS\משתמש\DESKTOP\סדנת_דיבאג\DEBUGWORKSHOP\DEBUG\LOOPAGAIN.EXE
C:\USERS\משתמש\DESKTOP\סדנת_דיבאג\DEBUGWORKSHOP\DEBUG\LOOPAGAIN.ILK
C:\USERS\משתמש\DESKTOP\סדנת_דיבאג\DEBUGWORKSHOP\DEBUG\LOOPAGAIN.PDB
